﻿{
    "WerewolfTeam": [
        {
            "cardName": "Werewolf",
            "balanceNum": "-6",
            "team": "Werewolf"
        },
        {
            "cardName": "Big Bad Wolf",
            "balanceNum": "-9",
            "team": "Werewolf"
        },
        {
            "cardName": "Alpha Wolf",
            "balanceNum": "-9",
            "team": "Werewolf"
        },
        {
            "cardName": "Wolf Club",
            "balanceNum": "-8",
            "team": "Werewolf"
        },
        {
            "cardName": "Dreamwolf",
            "balanceNum": "-5",
            "team": "Werewolf"
        },
        {
            "cardName": "Wolf Man",
            "balanceNum": "-9",
            "team": "Werewolf"
        },
        {
            "cardName": "Teenager Werewolf",
            "balanceNum": "-4",
            "team": "Werewolf"
        },
        {
            "cardName": "Sorceress",
            "balanceNum": "-3",
            "team": "Werewolf"
        },
        {
            "cardName": "Minion",
            "balanceNum": "-6",
            "team": "Werewolf"
        },
        {
            "cardName": "Direwolf",
            "balanceNum": "-4",
            "team": "Werewolf"
        },
        {
            "cardName": "Fruit Brute",
            "balanceNum": "-3",
            "team": "Werewolf"
        },
        {
            "cardName": "Wolverine",
            "balanceNum": "-4",
            "team": "Werewolf"
        },
        {
            "cardName": "Fang Face",
            "balanceNum": "-5",
            "team": "Werewolf"
        }  
    ]
}